module gitlab.com/djelasid/neo-logger

go 1.21.1

require (
	cloud.google.com/go/pubsub v1.33.0
	github.com/fsnotify/fsnotify v1.6.0
	github.com/go-playground/validator/v10 v10.15.5
	github.com/go-sql-driver/mysql v1.7.1
	github.com/gofiber/fiber/v2 v2.49.2
	github.com/google/uuid v1.3.1
	github.com/jmoiron/sqlx v1.3.5
	github.com/pkg/errors v0.9.1
	github.com/pressly/goose/v3 v3.15.1
	github.com/rabbitmq/amqp091-go v1.9.0
	github.com/sirupsen/logrus v1.9.3
	github.com/sony/gobreaker v0.5.0
	github.com/spf13/cast v1.5.1
	github.com/spf13/cobra v1.7.0
	github.com/spf13/viper v1.17.0
	github.com/stretchr/testify v1.8.4
	github.com/yukitsune/lokirus v1.0.1
	go.mongodb.org/mongo-driver v1.12.1
	go.opentelemetry.io/otel v1.19.0
	go.opentelemetry.io/otel/exporters/jaeger v1.17.0
	go.opentelemetry.io/otel/exporters/otlp/otlptrace/otlptracehttp v1.19.0
	go.opentelemetry.io/otel/sdk v1.19.0
	go.opentelemetry.io/otel/trace v1.19.0
	google.golang.org/api v0.143.0
)

require (
	cloud.google.com/go v0.110.7 // indirect
	cloud.google.com/go/compute v1.23.0 // indirect
	cloud.google.com/go/compute/metadata v0.2.3 // indirect
	cloud.google.com/go/iam v1.1.1 // indirect
	github.com/andybalholm/brotli v1.0.5 // indirect
	github.com/cenkalti/backoff/v4 v4.2.1 // indirect
	github.com/davecgh/go-spew v1.1.2-0.20180830191138-d8f796af33cc // indirect
	github.com/gabriel-vasile/mimetype v1.4.2 // indirect
	github.com/go-logr/logr v1.2.4 // indirect
	github.com/go-logr/stdr v1.2.2 // indirect
	github.com/go-playground/locales v0.14.1 // indirect
	github.com/go-playground/universal-translator v0.18.1 // indirect
	github.com/golang/groupcache v0.0.0-20210331224755-41bb18bfe9da // indirect
	github.com/golang/protobuf v1.5.3 // indirect
	github.com/golang/snappy v0.0.4 // indirect
	github.com/google/go-cmp v0.5.9 // indirect
	github.com/google/s2a-go v0.1.7 // indirect
	github.com/googleapis/enterprise-certificate-proxy v0.3.1 // indirect
	github.com/googleapis/gax-go/v2 v2.12.0 // indirect
	github.com/grpc-ecosystem/grpc-gateway/v2 v2.16.0 // indirect
	github.com/hashicorp/hcl v1.0.0 // indirect
	github.com/inconshreveable/mousetrap v1.1.0 // indirect
	github.com/klauspost/compress v1.17.0 // indirect
	github.com/leodido/go-urn v1.2.4 // indirect
	github.com/magiconair/properties v1.8.7 // indirect
	github.com/mattn/go-colorable v0.1.13 // indirect
	github.com/mattn/go-isatty v0.0.19 // indirect
	github.com/mattn/go-runewidth v0.0.15 // indirect
	github.com/mitchellh/mapstructure v1.5.0 // indirect
	github.com/montanaflynn/stats v0.0.0-20171201202039-1bf9dbcd8cbe // indirect
	github.com/pelletier/go-toml/v2 v2.1.0 // indirect
	github.com/pmezard/go-difflib v1.0.1-0.20181226105442-5d4384ee4fb2 // indirect
	github.com/rivo/uniseg v0.2.0 // indirect
	github.com/sagikazarmark/locafero v0.3.0 // indirect
	github.com/sagikazarmark/slog-shim v0.1.0 // indirect
	github.com/sourcegraph/conc v0.3.0 // indirect
	github.com/spf13/afero v1.10.0 // indirect
	github.com/spf13/pflag v1.0.5 // indirect
	github.com/stretchr/objx v0.5.0 // indirect
	github.com/subosito/gotenv v1.6.0 // indirect
	github.com/valyala/bytebufferpool v1.0.0 // indirect
	github.com/valyala/fasthttp v1.49.0 // indirect
	github.com/valyala/tcplisten v1.0.0 // indirect
	github.com/xdg-go/pbkdf2 v1.0.0 // indirect
	github.com/xdg-go/scram v1.1.2 // indirect
	github.com/xdg-go/stringprep v1.0.4 // indirect
	github.com/youmark/pkcs8 v0.0.0-20181117223130-1be2e3e5546d // indirect
	go.opencensus.io v0.24.0 // indirect
	go.opentelemetry.io/otel/exporters/otlp/otlptrace v1.19.0 // indirect
	go.opentelemetry.io/otel/metric v1.19.0 // indirect
	go.opentelemetry.io/proto/otlp v1.0.0 // indirect
	go.uber.org/multierr v1.11.0 // indirect
	golang.org/x/crypto v0.13.0 // indirect
	golang.org/x/exp v0.0.0-20230905200255-921286631fa9 // indirect
	golang.org/x/net v0.15.0 // indirect
	golang.org/x/oauth2 v0.12.0 // indirect
	golang.org/x/sync v0.3.0 // indirect
	golang.org/x/sys v0.13.0 // indirect
	golang.org/x/text v0.13.0 // indirect
	google.golang.org/appengine v1.6.7 // indirect
	google.golang.org/genproto v0.0.0-20230913181813-007df8e322eb // indirect
	google.golang.org/genproto/googleapis/api v0.0.0-20230913181813-007df8e322eb // indirect
	google.golang.org/genproto/googleapis/rpc v0.0.0-20230920204549-e6e6cdab5c13 // indirect
	google.golang.org/grpc v1.58.2 // indirect
	google.golang.org/protobuf v1.31.0 // indirect
	gopkg.in/ini.v1 v1.67.0 // indirect
	gopkg.in/yaml.v3 v3.0.1 // indirect
)
